Ricardo Salas%201230456%rsalas98%17/8/1995%medico
Fabio Valerio%207420324%bluecold%19/07/1995%medico
Fabio Valerio%207420324%bluecold%19/07/1995%medico
Rodrigo Salas%201230456%rsalas72%8/8/1972%medico
Krizia Acuña%204560123%kriz123%17/09/2017%secretaria
Krizia Acuña%201230456%123%17/09/1976%secretaria